Scoring via random forests • filtro
…
The data frame of results can be accessed via
object@results.

cells_imp_rf_res <- score_imp_rf |>
  fit(
    class ~ .,
    data = cells_subset,
    trees = 100,
    mtry = 2,
    min_n = 1, 
    seed = 42
  )
cells_imp_rf_res@results
#> # A tibble: 56 × 4
#>    name       score outcome predictor                   
#>    <chr>      <dbl> <chr>   <chr>                       
#>  1 imp_rf -0.00159  class   angle_ch_1                  
#>  2 imp_rf  0.00261  class   area_ch_1                   
#>  3 imp_rf  0.0100   class   avg_inten_ch_1              
#>  4 imp_rf -0.000803 class   avg_inten_ch_2              
#>  5 imp_rf  0.000801 class   avg_inten_ch_3              
#>  6 imp_rf  0.000823 class   avg_inten_ch_4              
#>  7 imp_rf  0.00410  class   convex_hull_area_ratio_ch_1 
#>  8 imp_rf  0.00577  class   convex_hull_perim_ratio_ch_1
#>  9 imp_rf  0.00255  class   diff_inten_density_ch_1     
#> 10 imp_rf -0.00263  class   diff_inten_density_ch_3     
#> # ℹ 46 more rows

For general scoring method via random forests:

For the scoring method specific to ranger:

A conditional random forest scoring example

set.seed(42)
cells_imp_rf_conditional_res <- score_imp_rf_conditional |>
  fit(class ~ ., data = cells_subset, trees = 3)
cells_imp_rf_conditional_res@results
#> # A tibble: 56 × 4
#>    name                score outcome predictor                   
#>    <chr>               <dbl> <chr>   <chr>                       
#>  1 imp_rf_conditional 0      class   angle_ch_1                  
#>  2 imp_rf_conditional 0      class   area_ch_1                   
#>  3 imp_rf_conditional 0.0826 class   avg_inten_ch_1              
#>  4 imp_rf_conditional 0      class   avg_inten_ch_2              
#>  5 imp_rf_conditional 0      class   avg_inten_ch_3              
#>  6 imp_rf_conditional 0      class   avg_inten_ch_4              
#>  7 imp_rf_conditional 0      class   convex_hull_area_ratio_ch_1 
#>  8 imp_rf_conditional 0      class   convex_hull_perim_ratio_ch_1
#>  9 imp_rf_conditional 0      class   diff_inten_density_ch_1     
#> 10 imp_rf_conditional 0      class   diff_inten_density_ch_3     
#> # ℹ 46 more rows

For the scoring method specific to partykit:

An oblique random forest scoring example

set.seed(42)
cells_imp_rf_oblique_res <- score_imp_rf_oblique |>
  fit(class ~ ., data = cells_subset, trees = 100, mtry = 2)
cells_imp_rf_oblique_res@results
#> # A tibble: 56 × 4
#>    name               score outcome predictor                   
#>    <chr>              <dbl> <chr>   <chr>                       
#>  1 imp_rf_oblique -0.00140  class   angle_ch_1                  
#>  2 imp_rf_oblique  0.00334  class   area_ch_1                   
#>  3 imp_rf_oblique  0.00344  class   avg_inten_ch_1              
#>  4 imp_rf_oblique  0.00516  class   avg_inten_ch_2              
#>  5 imp_rf_oblique -0.00135  class   avg_inten_ch_3              
#>  6 imp_rf_oblique -0.000552 class   avg_inten_ch_4              
#>  7 imp_rf_oblique  0.00159  class   convex_hull_area_ratio_ch_1 
#>  8 imp_rf_oblique  0.00406  class   convex_hull_perim_ratio_ch_1
#>  9 imp_rf_oblique  0.00526  class   diff_inten_density_ch_1     
#> 10 imp_rf_oblique  0.00284  class   diff_inten_density_ch_3     
#> # ℹ 46 more rows
…
