Scoring via analysis of variance hypothesis tests — score_aov_pval • filtro
…
    Examples

# Analysis of variance where `class` is the class predictor and the numeric
# predictors are the outcomes/responses

cell_data <- modeldata::cells
cell_data$case <- NULL

cell_p_val_res <-
  score_aov_pval |>
  fit(class ~ ., data = cell_data)
cell_p_val_res@results
#> # A tibble: 56 × 4
#>    name       score outcome predictor                   
#>    <chr>      <dbl> <chr>   <chr>                       
#>  1 aov_pval  0.0575 class   angle_ch_1                  
#>  2 aov_pval  1.04   class   area_ch_1                   
#>  3 aov_pval 73.2    class   avg_inten_ch_1              
#>  4 aov_pval 88.5    class   avg_inten_ch_2              
#>  5 aov_pval  0.0246 class   avg_inten_ch_3              
#>  6 aov_pval 27.8    class   avg_inten_ch_4              
#>  7 aov_pval 52.6    class   convex_hull_area_ratio_ch_1 
#>  8 aov_pval 60.0    class   convex_hull_perim_ratio_ch_1
#>  9 aov_pval 50.7    class   diff_inten_density_ch_1     
#> 10 aov_pval  1.51   class   diff_inten_density_ch_3     
#> # ℹ 46 more rows

cell_t_stat_res <-
  score_aov_fstat |>
  fit(class ~ ., data = cell_data)
cell_t_stat_res@results
#> # A tibble: 56 × 4
#>    name          score outcome predictor                   
#>    <chr>         <dbl> <chr>   <chr>                       
#>  1 aov_fstat   0.0244  class   angle_ch_1                  
#>  2 aov_fstat   2.87    class   area_ch_1                   
#>  3 aov_fstat 360.      class   avg_inten_ch_1              
#>  4 aov_fstat 444.      class   avg_inten_ch_2              
#>  5 aov_fstat   0.00477 class   avg_inten_ch_3              
#>  6 aov_fstat 127.      class   avg_inten_ch_4              
#>  7 aov_fstat 251.      class   convex_hull_area_ratio_ch_1 
#>  8 aov_fstat 289.      class   convex_hull_perim_ratio_ch_1
#>  9 aov_fstat 241.      class   diff_inten_density_ch_1     
#> 10 aov_fstat   4.68    class   diff_inten_density_ch_3     
#> # ℹ 46 more rows
…
# Analysis of variance where `chem_fp_*` are the class predictors and
# `permeability` is the numeric outcome/response

permeability <-
  modeldata::permeability_qsar |>
  # Make the problem a little smaller for time; use 50 predictors
  select(1:51) |>
  # Make the binary predictor columns into factors
  mutate(across(starts_with("chem_fp"), as.factor))

perm_p_val_res <-
  score_aov_pval |>
  fit(permeability ~ ., data = permeability)
perm_p_val_res@results
#> # A tibble: 50 × 4
#>    name      score outcome      predictor   
#>    <chr>     <dbl> <chr>        <chr>       
#>  1 aov_pval  1.88  permeability chem_fp_0001
#>  2 aov_pval  1.63  permeability chem_fp_0002
#>  3 aov_pval  1.36  permeability chem_fp_0003
#>  4 aov_pval  1.36  permeability chem_fp_0004
#>  5 aov_pval  1.36  permeability chem_fp_0005
#>  6 aov_pval 10.6   permeability chem_fp_0006
#>  7 aov_pval NA     permeability chem_fp_0007
#>  8 aov_pval NA     permeability chem_fp_0008
#>  9 aov_pval  0.265 permeability chem_fp_0009
#> 10 aov_pval  0.341 permeability chem_fp_0010
#> # ℹ 40 more rows

# Note that some `lm()` calls failed and are given NA score values. For
# example:
table(permeability$chem_fp_0007)
#> 
#>   1 
#> 165 

perm_t_stat_res <-
  score_aov_fstat |>
  fit(permeability ~ ., data = permeability)
perm_t_stat_res@results
#> # A tibble: 50 × 4
#>    name       score outcome      predictor   
#>    <chr>      <dbl> <chr>        <chr>       
#>  1 aov_fstat  6.28  permeability chem_fp_0001
#>  2 aov_fstat  5.22  permeability chem_fp_0002
#>  3 aov_fstat  4.13  permeability chem_fp_0003
#>  4 aov_fstat  4.13  permeability chem_fp_0004
#>  5 aov_fstat  4.13  permeability chem_fp_0005
#>  6 aov_fstat 51.3   permeability chem_fp_0006
#>  7 aov_fstat NA     permeability chem_fp_0007
#>  8 aov_fstat NA     permeability chem_fp_0008
#>  9 aov_fstat  0.371 permeability chem_fp_0009
#> 10 aov_fstat  0.559 permeability chem_fp_0010
#> # ℹ 40 more rows
…
